<?xml version="1.0" encoding="UTF-8" standalone="no"?>
<!-- Created with Inkscape (http://www.inkscape.org/) -->

<svg
   xmlns:dc="http://purl.org/dc/elements/1.1/"
   xmlns:cc="http://creativecommons.org/ns#"
   xmlns:rdf="http://www.w3.org/1999/02/22-rdf-syntax-ns#"
   xmlns:svg="http://www.w3.org/2000/svg"
   xmlns="http://www.w3.org/2000/svg"
   xmlns:sodipodi="http://sodipodi.sourceforge.net/DTD/sodipodi-0.dtd"
   xmlns:inkscape="http://www.inkscape.org/namespaces/inkscape"
   width="210mm"
   height="297mm"
   viewBox="0 0 744.09448819 1052.3622047"
   id="svg4181"
   version="1.1"
   inkscape:version="0.91 r13725"
   sodipodi:docname="Discordian Tarot - Boom - Boomtime.svg">
  <defs
     id="defs4183" />
  <sodipodi:namedview
     id="base"
     pagecolor="#ffffff"
     bordercolor="#666666"
     borderopacity="1.0"
     inkscape:pageopacity="0.0"
     inkscape:pageshadow="2"
     inkscape:zoom="0.7"
     inkscape:cx="-36.715243"
     inkscape:cy="514.28572"
     inkscape:document-units="px"
     inkscape:current-layer="layer1"
     showgrid="false"
     inkscape:window-width="1920"
     inkscape:window-height="1029"
     inkscape:window-x="0"
     inkscape:window-y="25"
     inkscape:window-maximized="1" />
  <metadata
     id="metadata4186">
    <rdf:RDF>
      <cc:Work
         rdf:about="">
        <dc:format>image/svg+xml</dc:format>
        <dc:type
           rdf:resource="http://purl.org/dc/dcmitype/StillImage" />
        <dc:title />
      </cc:Work>
    </rdf:RDF>
  </metadata>
  <g
     inkscape:label="Layer 1"
     inkscape:groupmode="layer"
     id="layer1">
    <path
       style="fill:none;fill-rule:evenodd;stroke:#000000;stroke-width:15;stroke-linecap:butt;stroke-linejoin:miter;stroke-miterlimit:4;stroke-dasharray:none;stroke-opacity:1"
       d="m -28,902.8622 812.85714,-10e-6"
       id="path4136"
       inkscape:connector-curvature="0"
       sodipodi:nodetypes="cc" />
    <text
       xml:space="preserve"
       style="font-style:normal;font-weight:normal;font-size:137.04573059px;line-height:0%;font-family:Sans;letter-spacing:0px;word-spacing:0px;fill:#000000;fill-opacity:1;stroke:none;stroke-width:1px;stroke-linecap:butt;stroke-linejoin:miter;stroke-opacity:1"
       x="13.324816"
       y="1039.009"
       id="text4153"
       sodipodi:linespacing="0%"
       transform="scale(1.0126734,0.98748518)"><tspan
         sodipodi:role="line"
         id="tspan4155"
         x="13.324816"
         y="1039.009">Boomtime</tspan></text>
    <path
       style="fill:none;fill-rule:evenodd;stroke:#000000;stroke-width:8.6836195;stroke-linecap:butt;stroke-linejoin:miter;stroke-miterlimit:4;stroke-dasharray:none;stroke-opacity:1"
       d="m 55.506302,22.463451 c 42.42512,12.730816 38.32548,43.998766 -1.05648,49.848356 z"
       id="path4183"
       inkscape:connector-curvature="0"
       sodipodi:nodetypes="ccc" />
    <path
       style="fill:none;fill-rule:evenodd;stroke:#000000;stroke-width:8.6836195;stroke-linecap:butt;stroke-linejoin:miter;stroke-miterlimit:4;stroke-dasharray:none;stroke-opacity:1"
       d="m 640.5063,22.463452 c 42.42512,12.730815 38.32548,43.998765 -1.05648,49.848355 z"
       id="path4183-3"
       inkscape:connector-curvature="0"
       sodipodi:nodetypes="ccc" />
    <g
       id="g4175"
       transform="translate(-228.88964,-78.160272)">
      <g
         id="g4172">
        <path
           style="fill:none;fill-rule:evenodd;stroke:#000000;stroke-width:3.80396867;stroke-linecap:butt;stroke-linejoin:miter;stroke-miterlimit:4;stroke-dasharray:none;stroke-opacity:1"
           d="m 342.0942,248.3018 c -2.75398,4.01167 -7.44398,5.56981 -13.14615,5.28834 -9.02958,-0.44574 -20.59725,-5.5045 -31.03441,-12.73849 -8.34632,-5.78485 -15.96971,-12.96073 -20.99413,-20.28102 -3.66668,-5.34214 -5.94921,-10.76118 -6.11851,-15.77262 -0.2262,-6.6965 3.32088,-12.6652 12.38088,-16.75015 5.06182,-2.28228 11.84449,-3.97654 20.65138,-4.88119 9.99731,-1.02693 32.70455,-0.27876 37.25079,6.58003 -8.05891,17.41946 -6.13407,37.33486 1.01015,58.5551 z"
           id="path4166"
           inkscape:connector-curvature="0"
           sodipodi:nodetypes="csssssscc" />
      </g>
      <path
         sodipodi:nodetypes="cc"
         inkscape:connector-curvature="0"
         id="path4168"
         d="m 327.18044,219.78814 c -20.19055,-16.73382 -9.38765,-15.5001 6.62835,-12.1183"
         style="fill:none;fill-rule:evenodd;stroke:#000000;stroke-width:3.80396867;stroke-linecap:butt;stroke-linejoin:miter;stroke-miterlimit:4;stroke-dasharray:none;stroke-opacity:1" />
      <path
         style="fill:none;fill-rule:evenodd;stroke:#000000;stroke-width:3.04258323;stroke-linecap:butt;stroke-linejoin:miter;stroke-miterlimit:4;stroke-dasharray:none;stroke-opacity:1"
         d="m 340.5493,239.64295 c -10.2936,-3.96028 -30.67817,-5.90717 -36.65244,-13.54997 -18.04515,-23.0849 -23.73912,-45.90241 33.08101,-29.04698"
         id="path4170"
         inkscape:connector-curvature="0"
         sodipodi:nodetypes="csc" />
    </g>
    <g
       id="g4175-6"
       transform="translate(346.11036,-78.160272)">
      <g
         id="g4172-7">
        <path
           style="fill:none;fill-rule:evenodd;stroke:#000000;stroke-width:3.80396867;stroke-linecap:butt;stroke-linejoin:miter;stroke-miterlimit:4;stroke-dasharray:none;stroke-opacity:1"
           d="m 342.0942,248.3018 c -2.75398,4.01167 -7.44398,5.56981 -13.14615,5.28834 -9.02958,-0.44574 -20.59725,-5.5045 -31.03441,-12.73849 -8.34632,-5.78485 -15.96971,-12.96073 -20.99413,-20.28102 -3.66668,-5.34214 -5.94921,-10.76118 -6.11851,-15.77262 -0.2262,-6.6965 3.32088,-12.6652 12.38088,-16.75015 5.06182,-2.28228 11.84449,-3.97654 20.65138,-4.88119 9.99731,-1.02693 32.70455,-0.27876 37.25079,6.58003 -8.05891,17.41946 -6.13407,37.33486 1.01015,58.5551 z"
           id="path4166-5"
           inkscape:connector-curvature="0"
           sodipodi:nodetypes="csssssscc" />
      </g>
      <path
         sodipodi:nodetypes="cc"
         inkscape:connector-curvature="0"
         id="path4168-3"
         d="m 327.18044,219.78814 c -20.19055,-16.73382 -9.38765,-15.5001 6.62835,-12.1183"
         style="fill:none;fill-rule:evenodd;stroke:#000000;stroke-width:3.80396867;stroke-linecap:butt;stroke-linejoin:miter;stroke-miterlimit:4;stroke-dasharray:none;stroke-opacity:1" />
      <path
         style="fill:none;fill-rule:evenodd;stroke:#000000;stroke-width:3.04258323;stroke-linecap:butt;stroke-linejoin:miter;stroke-miterlimit:4;stroke-dasharray:none;stroke-opacity:1"
         d="m 340.5493,239.64295 c -10.2936,-3.96028 -30.67817,-5.90717 -36.65244,-13.54997 -18.04515,-23.0849 -23.73912,-45.90241 33.08101,-29.04698"
         id="path4170-5"
         inkscape:connector-curvature="0"
         sodipodi:nodetypes="csc" />
    </g>
    <g
       id="g4175-62"
       transform="matrix(2.6556824,0,0,2.6556824,-461.22833,-96.22434)">
      <g
         id="g4172-9">
        <path
           style="fill:none;fill-rule:evenodd;stroke:#000000;stroke-width:3.80396867;stroke-linecap:butt;stroke-linejoin:miter;stroke-miterlimit:4;stroke-dasharray:none;stroke-opacity:1"
           d="m 342.0942,248.3018 c -2.75398,4.01167 -7.44398,5.56981 -13.14615,5.28834 -9.02958,-0.44574 -20.59725,-5.5045 -31.03441,-12.73849 -8.34632,-5.78485 -15.96971,-12.96073 -20.99413,-20.28102 -3.66668,-5.34214 -5.94921,-10.76118 -6.11851,-15.77262 -0.2262,-6.6965 3.32088,-12.6652 12.38088,-16.75015 5.06182,-2.28228 11.84449,-3.97654 20.65138,-4.88119 9.99731,-1.02693 32.70455,-0.27876 37.25079,6.58003 -8.05891,17.41946 -6.13407,37.33486 1.01015,58.5551 z"
           id="path4166-1"
           inkscape:connector-curvature="0"
           sodipodi:nodetypes="csssssscc" />
      </g>
      <path
         sodipodi:nodetypes="cc"
         inkscape:connector-curvature="0"
         id="path4168-2"
         d="m 327.18044,219.78814 c -20.19055,-16.73382 -9.38765,-15.5001 6.62835,-12.1183"
         style="fill:none;fill-rule:evenodd;stroke:#000000;stroke-width:3.80396867;stroke-linecap:butt;stroke-linejoin:miter;stroke-miterlimit:4;stroke-dasharray:none;stroke-opacity:1" />
      <path
         style="fill:none;fill-rule:evenodd;stroke:#000000;stroke-width:3.04258323;stroke-linecap:butt;stroke-linejoin:miter;stroke-miterlimit:4;stroke-dasharray:none;stroke-opacity:1"
         d="m 340.5493,239.64295 c -10.2936,-3.96028 -30.67817,-5.90717 -36.65244,-13.54997 -18.04515,-23.0849 -23.73912,-45.90241 33.08101,-29.04698"
         id="path4170-7"
         inkscape:connector-curvature="0"
         sodipodi:nodetypes="csc" />
    </g>
    <ellipse
       style="color:#000000;display:inline;overflow:visible;visibility:visible;fill:none;fill-opacity:1;fill-rule:evenodd;stroke:#000000;stroke-width:20;stroke-linecap:butt;stroke-linejoin:miter;stroke-miterlimit:4;stroke-dasharray:none;stroke-dashoffset:0;stroke-opacity:1;marker:none;enable-background:accumulate"
       id="path4283"
       cx="360.71429"
       cy="489.50507"
       rx="230.71428"
       ry="212.85715" />
    <rect
       style="opacity:1;fill:none;fill-opacity:1;fill-rule:evenodd;stroke:#000000;stroke-width:15;stroke-linecap:round;stroke-linejoin:round;stroke-miterlimit:4;stroke-dasharray:none;stroke-opacity:1"
       id="rect4421"
       width="750"
       height="1055"
       x="-2.5"
       y="-0.13779527" />
  </g>
</svg>
