<?xml version="1.0" encoding="UTF-8" standalone="no"?>
<!-- Created with Inkscape (http://www.inkscape.org/) -->

<svg
   xmlns:dc="http://purl.org/dc/elements/1.1/"
   xmlns:cc="http://creativecommons.org/ns#"
   xmlns:rdf="http://www.w3.org/1999/02/22-rdf-syntax-ns#"
   xmlns:svg="http://www.w3.org/2000/svg"
   xmlns="http://www.w3.org/2000/svg"
   xmlns:sodipodi="http://sodipodi.sourceforge.net/DTD/sodipodi-0.dtd"
   xmlns:inkscape="http://www.inkscape.org/namespaces/inkscape"
   width="210mm"
   height="297mm"
   viewBox="0 0 744.09448819 1052.3622047"
   id="svg4181"
   version="1.1"
   inkscape:version="0.91 r13725"
   sodipodi:docname="Discordian Tarot - Pungent - Pungenday.svg">
  <defs
     id="defs4183" />
  <sodipodi:namedview
     id="base"
     pagecolor="#ffffff"
     bordercolor="#666666"
     borderopacity="1.0"
     inkscape:pageopacity="0.0"
     inkscape:pageshadow="2"
     inkscape:zoom="0.7"
     inkscape:cx="-36.715243"
     inkscape:cy="517.14286"
     inkscape:document-units="px"
     inkscape:current-layer="layer1"
     showgrid="false"
     inkscape:window-width="1920"
     inkscape:window-height="1029"
     inkscape:window-x="0"
     inkscape:window-y="25"
     inkscape:window-maximized="1" />
  <metadata
     id="metadata4186">
    <rdf:RDF>
      <cc:Work
         rdf:about="">
        <dc:format>image/svg+xml</dc:format>
        <dc:type
           rdf:resource="http://purl.org/dc/dcmitype/StillImage" />
        <dc:title />
      </cc:Work>
    </rdf:RDF>
  </metadata>
  <g
     inkscape:label="Layer 1"
     inkscape:groupmode="layer"
     id="layer1">
    <path
       style="fill:none;fill-rule:evenodd;stroke:#000000;stroke-width:15;stroke-linecap:butt;stroke-linejoin:miter;stroke-miterlimit:4;stroke-dasharray:none;stroke-opacity:1"
       d="m -28,902.8622 812.85714,-10e-6"
       id="path4136"
       inkscape:connector-curvature="0"
       sodipodi:nodetypes="cc" />
    <text
       xml:space="preserve"
       style="font-style:normal;font-weight:normal;font-size:124.62232208px;line-height:0%;font-family:Sans;letter-spacing:0px;word-spacing:0px;fill:#000000;fill-opacity:1;stroke:none;stroke-width:1px;stroke-linecap:butt;stroke-linejoin:miter;stroke-opacity:1"
       x="14.322761"
       y="1037.3632"
       id="text4153"
       sodipodi:linespacing="0%"
       transform="scale(1.0211148,0.9793218)"><tspan
         sodipodi:role="line"
         id="tspan4155"
         x="14.322761"
         y="1037.3632">Pungenday</tspan></text>
    <path
       style="fill:none;fill-rule:evenodd;stroke:#000000;stroke-width:8.6836195;stroke-linecap:butt;stroke-linejoin:miter;stroke-miterlimit:4;stroke-dasharray:none;stroke-opacity:1"
       d="m 55.506302,22.463451 c 42.42512,12.730816 38.32548,43.998766 -1.05648,49.848356 z"
       id="path4183"
       inkscape:connector-curvature="0"
       sodipodi:nodetypes="ccc" />
    <path
       style="fill:none;fill-rule:evenodd;stroke:#000000;stroke-width:8.6836195;stroke-linecap:butt;stroke-linejoin:miter;stroke-miterlimit:4;stroke-dasharray:none;stroke-opacity:1"
       d="m 640.5063,22.463452 c 42.42512,12.730815 38.32548,43.998765 -1.05648,49.848355 z"
       id="path4183-3"
       inkscape:connector-curvature="0"
       sodipodi:nodetypes="ccc" />
    <g
       id="g4144"
       transform="matrix(0.8792961,0,0,0.84987066,-121.59254,-293.72118)">
      <path
         d="m 187.13141,525.95884 a 42.142857,43.57143 0 0 1 24.05916,-56.36292 42.142857,43.57143 0 0 1 54.52387,24.85382 42.142857,43.57143 0 0 1 -24.01872,56.38136 42.142857,43.57143 0 0 1 -54.54169,-24.812"
         sodipodi:open="true"
         sodipodi:end="2.7705182"
         sodipodi:start="2.7720017"
         sodipodi:ry="43.57143"
         sodipodi:rx="42.142857"
         sodipodi:cy="510.21936"
         sodipodi:cx="226.42857"
         sodipodi:type="arc"
         id="path12974"
         style="color:#000000;display:inline;overflow:visible;visibility:visible;fill:#000000;fill-opacity:1;fill-rule:evenodd;stroke:#000000;stroke-width:1px;stroke-linecap:butt;stroke-linejoin:miter;stroke-miterlimit:4;stroke-dasharray:none;stroke-dashoffset:0;stroke-opacity:1;marker:none;enable-background:accumulate" />
      <path
         d="m 203.67709,516.03433 a 12.142858,12.142858 0 0 1 6.9323,-15.7077 12.142858,12.142858 0 0 1 15.71027,6.92648 12.142858,12.142858 0 0 1 -6.92065,15.71283 12.142858,12.142858 0 0 1 -15.7154,-6.91482"
         sodipodi:open="true"
         sodipodi:end="2.7705182"
         sodipodi:start="2.7720017"
         sodipodi:ry="12.142858"
         sodipodi:rx="12.142858"
         sodipodi:cy="511.64792"
         sodipodi:cx="215"
         sodipodi:type="arc"
         id="path12976"
         style="color:#000000;display:inline;overflow:visible;visibility:visible;fill:#ffffff;fill-opacity:1;fill-rule:evenodd;stroke:#000000;stroke-width:1px;stroke-linecap:butt;stroke-linejoin:miter;stroke-miterlimit:4;stroke-dasharray:none;stroke-dashoffset:0;stroke-opacity:1;marker:none;enable-background:accumulate" />
      <path
         style="color:#000000;display:inline;overflow:visible;visibility:visible;fill:#ffffff;fill-opacity:1;fill-rule:evenodd;stroke:#000000;stroke-width:1px;stroke-linecap:butt;stroke-linejoin:miter;stroke-miterlimit:4;stroke-dasharray:none;stroke-dashoffset:0;stroke-opacity:1;marker:none;enable-background:accumulate"
         id="path12978"
         sodipodi:type="arc"
         sodipodi:cx="237.85715"
         sodipodi:cy="511.64792"
         sodipodi:rx="12.142858"
         sodipodi:ry="12.142858"
         sodipodi:start="2.7720017"
         sodipodi:end="2.7705182"
         sodipodi:open="true"
         d="m 226.53423,516.03433 a 12.142858,12.142858 0 0 1 6.9323,-15.7077 12.142858,12.142858 0 0 1 15.71027,6.92648 12.142858,12.142858 0 0 1 -6.92064,15.71283 12.142858,12.142858 0 0 1 -15.71541,-6.91482" />
    </g>
    <g
       id="g4144-0"
       transform="matrix(0.8792961,0,0,0.84987066,453.40746,-293.72118)">
      <path
         d="m 187.13141,525.95884 a 42.142857,43.57143 0 0 1 24.05916,-56.36292 42.142857,43.57143 0 0 1 54.52387,24.85382 42.142857,43.57143 0 0 1 -24.01872,56.38136 42.142857,43.57143 0 0 1 -54.54169,-24.812"
         sodipodi:open="true"
         sodipodi:end="2.7705182"
         sodipodi:start="2.7720017"
         sodipodi:ry="43.57143"
         sodipodi:rx="42.142857"
         sodipodi:cy="510.21936"
         sodipodi:cx="226.42857"
         sodipodi:type="arc"
         id="path12974-9"
         style="color:#000000;display:inline;overflow:visible;visibility:visible;fill:#000000;fill-opacity:1;fill-rule:evenodd;stroke:#000000;stroke-width:1px;stroke-linecap:butt;stroke-linejoin:miter;stroke-miterlimit:4;stroke-dasharray:none;stroke-dashoffset:0;stroke-opacity:1;marker:none;enable-background:accumulate" />
      <path
         d="m 203.67709,516.03433 a 12.142858,12.142858 0 0 1 6.9323,-15.7077 12.142858,12.142858 0 0 1 15.71027,6.92648 12.142858,12.142858 0 0 1 -6.92065,15.71283 12.142858,12.142858 0 0 1 -15.7154,-6.91482"
         sodipodi:open="true"
         sodipodi:end="2.7705182"
         sodipodi:start="2.7720017"
         sodipodi:ry="12.142858"
         sodipodi:rx="12.142858"
         sodipodi:cy="511.64792"
         sodipodi:cx="215"
         sodipodi:type="arc"
         id="path12976-3"
         style="color:#000000;display:inline;overflow:visible;visibility:visible;fill:#ffffff;fill-opacity:1;fill-rule:evenodd;stroke:#000000;stroke-width:1px;stroke-linecap:butt;stroke-linejoin:miter;stroke-miterlimit:4;stroke-dasharray:none;stroke-dashoffset:0;stroke-opacity:1;marker:none;enable-background:accumulate" />
      <path
         style="color:#000000;display:inline;overflow:visible;visibility:visible;fill:#ffffff;fill-opacity:1;fill-rule:evenodd;stroke:#000000;stroke-width:1px;stroke-linecap:butt;stroke-linejoin:miter;stroke-miterlimit:4;stroke-dasharray:none;stroke-dashoffset:0;stroke-opacity:1;marker:none;enable-background:accumulate"
         id="path12978-6"
         sodipodi:type="arc"
         sodipodi:cx="237.85715"
         sodipodi:cy="511.64792"
         sodipodi:rx="12.142858"
         sodipodi:ry="12.142858"
         sodipodi:start="2.7720017"
         sodipodi:end="2.7705182"
         sodipodi:open="true"
         d="m 226.53423,516.03433 a 12.142858,12.142858 0 0 1 6.9323,-15.7077 12.142858,12.142858 0 0 1 15.71027,6.92648 12.142858,12.142858 0 0 1 -6.92064,15.71283 12.142858,12.142858 0 0 1 -15.71541,-6.91482" />
    </g>
    <g
       id="g4144-06"
       transform="matrix(2.3444631,0,0,2.2660062,-180.85343,-753.68524)">
      <path
         d="m 187.13141,525.95884 a 42.142857,43.57143 0 0 1 24.05916,-56.36292 42.142857,43.57143 0 0 1 54.52387,24.85382 42.142857,43.57143 0 0 1 -24.01872,56.38136 42.142857,43.57143 0 0 1 -54.54169,-24.812"
         sodipodi:open="true"
         sodipodi:end="2.7705182"
         sodipodi:start="2.7720017"
         sodipodi:ry="43.57143"
         sodipodi:rx="42.142857"
         sodipodi:cy="510.21936"
         sodipodi:cx="226.42857"
         sodipodi:type="arc"
         id="path12974-2"
         style="color:#000000;display:inline;overflow:visible;visibility:visible;fill:#000000;fill-opacity:1;fill-rule:evenodd;stroke:#000000;stroke-width:1px;stroke-linecap:butt;stroke-linejoin:miter;stroke-miterlimit:4;stroke-dasharray:none;stroke-dashoffset:0;stroke-opacity:1;marker:none;enable-background:accumulate" />
      <path
         d="m 203.67709,516.03433 a 12.142858,12.142858 0 0 1 6.9323,-15.7077 12.142858,12.142858 0 0 1 15.71027,6.92648 12.142858,12.142858 0 0 1 -6.92065,15.71283 12.142858,12.142858 0 0 1 -15.7154,-6.91482"
         sodipodi:open="true"
         sodipodi:end="2.7705182"
         sodipodi:start="2.7720017"
         sodipodi:ry="12.142858"
         sodipodi:rx="12.142858"
         sodipodi:cy="511.64792"
         sodipodi:cx="215"
         sodipodi:type="arc"
         id="path12976-6"
         style="color:#000000;display:inline;overflow:visible;visibility:visible;fill:#ffffff;fill-opacity:1;fill-rule:evenodd;stroke:#000000;stroke-width:1px;stroke-linecap:butt;stroke-linejoin:miter;stroke-miterlimit:4;stroke-dasharray:none;stroke-dashoffset:0;stroke-opacity:1;marker:none;enable-background:accumulate" />
      <path
         style="color:#000000;display:inline;overflow:visible;visibility:visible;fill:#ffffff;fill-opacity:1;fill-rule:evenodd;stroke:#000000;stroke-width:1px;stroke-linecap:butt;stroke-linejoin:miter;stroke-miterlimit:4;stroke-dasharray:none;stroke-dashoffset:0;stroke-opacity:1;marker:none;enable-background:accumulate"
         id="path12978-1"
         sodipodi:type="arc"
         sodipodi:cx="237.85715"
         sodipodi:cy="511.64792"
         sodipodi:rx="12.142858"
         sodipodi:ry="12.142858"
         sodipodi:start="2.7720017"
         sodipodi:end="2.7705182"
         sodipodi:open="true"
         d="m 226.53423,516.03433 a 12.142858,12.142858 0 0 1 6.9323,-15.7077 12.142858,12.142858 0 0 1 15.71027,6.92648 12.142858,12.142858 0 0 1 -6.92064,15.71283 12.142858,12.142858 0 0 1 -15.71541,-6.91482" />
    </g>
    <path
       style="fill:#000000;fill-opacity:1;fill-rule:evenodd;stroke:#000000;stroke-width:2.45182204px;stroke-linecap:butt;stroke-linejoin:miter;stroke-opacity:1"
       d="m -413.49389,887.10341 c 525.92249,-238.3854 1051.84499,-176.14899 1577.76749,0 -531.8061,13.54231 -1060.89624,20.83353 -1577.76749,0 z"
       id="path4158"
       inkscape:connector-curvature="0"
       sodipodi:nodetypes="ccc" />
    <path
       style="fill:none;fill-rule:evenodd;stroke:#000000;stroke-width:20;stroke-linecap:butt;stroke-linejoin:miter;stroke-miterlimit:4;stroke-dasharray:none;stroke-opacity:1"
       d="M 237.14285,400.93364 102.85714,399.50507"
       id="path4346"
       inkscape:connector-curvature="0" />
    <path
       style="fill:none;fill-rule:evenodd;stroke:#000000;stroke-width:20;stroke-linecap:butt;stroke-linejoin:miter;stroke-miterlimit:4;stroke-dasharray:none;stroke-opacity:1"
       d="M 592.85715,398.79078 458.57143,397.36221"
       id="path4346-8"
       inkscape:connector-curvature="0" />
    <path
       style="fill:none;fill-rule:evenodd;stroke:#000000;stroke-width:20;stroke-linecap:butt;stroke-linejoin:miter;stroke-miterlimit:4;stroke-dasharray:none;stroke-opacity:1"
       d="M 298.56562,498.66022 247.14864,626.06417"
       id="path4346-7"
       inkscape:connector-curvature="0" />
    <path
       style="fill:none;fill-rule:evenodd;stroke:#000000;stroke-width:20;stroke-linecap:butt;stroke-linejoin:miter;stroke-miterlimit:4;stroke-dasharray:none;stroke-opacity:1"
       d="M 525.20074,583.53479 431.94212,486.90392"
       id="path4346-9"
       inkscape:connector-curvature="0" />
    <path
       style="fill:none;fill-rule:evenodd;stroke:#000000;stroke-width:20;stroke-linecap:butt;stroke-linejoin:miter;stroke-miterlimit:4;stroke-dasharray:none;stroke-opacity:1"
       d="M 476.10155,197.71754 406.75558,312.72115"
       id="path4346-2"
       inkscape:connector-curvature="0" />
    <path
       style="fill:none;fill-rule:evenodd;stroke:#000000;stroke-width:20;stroke-linecap:butt;stroke-linejoin:miter;stroke-miterlimit:4;stroke-dasharray:none;stroke-opacity:1"
       d="M 283.83862,317.16613 210.44709,204.70114"
       id="path4346-0"
       inkscape:connector-curvature="0"
       inkscape:transform-center-x="-2.8571429"
       inkscape:transform-center-y="7.1428571" />
    <rect
       style="opacity:1;fill:none;fill-opacity:1;fill-rule:evenodd;stroke:#000000;stroke-width:15;stroke-linecap:round;stroke-linejoin:round;stroke-miterlimit:4;stroke-dasharray:none;stroke-opacity:1"
       id="rect4421"
       width="750"
       height="1055"
       x="-2.5"
       y="-0.13779527" />
  </g>
</svg>
